PATIENT ID,hospital_outcome
51,0
54,0
59,0
60,0
61,0
63,1
64,1
65,0
68,0
73,1
81,0
82,0
89,0
90,0
99,0
100,0
102,0
106,0
124,0
130,1
131,0
134,0
135,0
137,0
145,0
155,0
156,1
159,1
164,0
167,0
170,0
181,1
192,0
195,1
200,0
205,0
211,0
216,0
220,1
228,0
232,0
234,0
240,1
243,0
250,0
251,0
254,0
258,0
261,0
268,0
289,0
291,0
317,0
325,0
329,0
330,0
340,1
343,0
349,0
353,0
358,0
359,0
362,0
364,0
365,1
368,0
369,1
373,0
380,0
392,0
394,0
397,0
401,0
408,0
411,0
418,1
423,0
426,1
430,0
438,1
439,0
440,0
442,0
443,1
447,0
448,0
449,1
453,0
465,0
482,1
488,0
490,0
495,1
497,0
500,0
510,1
520,0
527,1
533,1
540,0
541,0
591,0
600,1
601,1
604,0
605,0
611,0
616,0
625,0
630,0
632,0
635,1
643,0
651,0
658,1
661,0
671,1
672,0
678,0
685,0
697,0
703,0
705,0
715,0
716,1
724,0
726,0
729,0
734,0
738,0
757,0
759,0
761,0
764,0
771,0
791,1
806,1
810,1
817,0
819,1
825,1
828,0
839,1
842,0
847,0
849,0
862,1
873,0
877,1
889,0
895,1
896,0
898,1
905,0
910,1
915,0
917,0
920,0
925,1
926,1
928,0
932,0
933,1
935,0
940,0
941,0
942,0
944,0
945,1
953,0
957,0
972,0
977,0
987,0
991,0
993,0
994,0
1004,0
1006,0
1012,0
1020,0
1026,0
1037,0
1039,0
1046,0
1055,0
1056,0
1057,0
1058,0
1064,0
1065,1
1066,1
1067,0
1072,0
1075,0
1078,0
1089,0
1092,0
1093,0
1096,1
1099,0
1103,0
1107,0
1116,0
1117,1
1118,0
1119,0
1121,0
1142,0
1150,0
1155,0
1159,0
1177,0
1183,0
1184,0
1186,0
1191,0
1198,0
1200,0
1204,0
1206,0
1211,1
1221,0
1224,0
1236,0
1242,0
1246,0
1256,1
1259,1
1274,0
1294,0
1302,0
1307,0
1310,0
1311,0
1319,0
1323,0
1336,0
1338,0
1340,0
1346,0
1350,1
1358,0
1361,0
1365,0
1367,0
1369,0
1371,0
1377,1
1380,1
1381,0
1391,0
1398,0
1402,0
1407,0
1415,1
1416,0
1418,1
1426,1
1434,0
1437,0
1445,0
1446,1
1470,1
1477,0
1486,0
1489,0
1492,0
1500,0
1503,0
1505,0
1507,1
1508,0
1514,0
1516,1
1526,1
1527,0
1538,0
1543,0
1545,1
1549,1
1558,0
1559,1
1560,0
1565,0
1580,0
1582,0
1588,0
1594,0
1596,0
1602,0
1609,0
1611,0
1613,0
1614,0
1616,1
1623,1
1632,0
1636,0
1646,0
1649,0
1657,1
1665,1
1678,1
1697,1
1705,1
1720,0
1724,0
1728,1
1730,1
1734,0
1740,0
1741,0
1749,0
1750,0
1751,0
1753,1
1773,0
1776,0
1787,0
1791,0
1798,0
1799,0
1801,0
1807,1
1819,0
1821,0
1829,0
1832,0
1837,0
1841,0
1847,0
1853,0
1855,0
1860,1
1865,0
1867,1
1868,0
1871,0
1873,0
1883,0
1884,0
1888,0
1897,0
1906,1
1908,0
1913,0
1914,1
1917,0
1921,0
1923,0
1932,1
1933,1
1941,0
1961,0
1971,0
1974,0
1987,0
1993,1
1997,0
1999,1
2003,0
2005,1
2013,0
2016,0
2023,0
2024,1
2026,0
2027,0
2028,0
2032,0
2038,1
2045,0
2050,0
2051,0
2056,0
2063,0
2069,0
2075,0
2082,1
2093,0
2096,0
2099,0
2101,1
2108,0
2109,0
2112,1
2129,0
2140,0
2153,0
2163,0
2168,0
2172,0
2181,0
2182,0
2185,0
2186,0
2190,0
2201,1
2205,0
2211,0
2222,0
2228,0
2232,0
2236,0
2251,0
2254,0
2268,0
2272,0
2274,0
2277,0
2278,0
2279,1
2284,0
2294,0
2295,0
2301,1
2315,0
2322,1
2328,0
2331,1
2336,0
2337,1
2356,0
2361,0
2375,0
2376,0
2378,1
2397,0
2399,1
2405,1
2409,0
2416,0
2428,1
2433,1
2435,0
2440,0
2445,0
2446,0
2459,0
2466,0
2469,0
2473,0
2483,0
2486,0
2492,0
2493,0
2495,1
2497,0
2499,1
2505,1
2522,0
2526,1
2538,1
2554,1
2567,0
2569,0
